{
  "id": 2,
  "type": 0,
  "stageId": 0,
  "stageBattleIndex": 3,
  "heroExperience": 10,
  "rewards": [
    {"type": 0, "id": 0, "amount": 1, "weight": 40},
    {"type": 0, "id": 1, "amount": 1, "weight": 40},
    {"type": 4, "id": 3, "amount": 15, "weight": 20}
  ],
  "rolls": 3
}
