{
    "0": {
      "id": 0,
      "name": "Daily 1",
      "desc": "Visit your home page!",
      "type": "add",
      "goals": [
        { "id": 0, "value" : 1, "reward" : [ {"type":"coins", "amount":100} ],  "flavor" : "Daily 1x1"},
        { "id": 1, "value" : 3, "reward" : [ {"type":"coins", "amount":200} ], "flavor" : "Daily 1x2"},
        { "id": 2, "value" : 5, "reward" : [ {"type":"items", "amount":2, "id":1} ], "flavor" : "Daily 1x3"},
        { "id": 3, "value" : 7, "reward" : [ {"type":"coins", "amount":400} ], "flavor" : "Daily 1x4"},
        { "id": 4, "value" : 9, "reward" : [ {"type":"coins", "amount":500} , {"type":"coins", "amount":300} ], "flavor" : "Daily 1x5"}
      ]
    },
    "1": {
      "id": 1,
      "name": "Daily 2",
      "desc": "Visit your stages page!",
      "type": "add",
      "goals": [
        { "id": 0, "value" : 1, "reward" : [ {"type":"coins", "amount":100} ], "flavor" : "Daily 2x1"},
        { "id": 1, "value" : 3, "reward" : [ {"type":"coins", "amount":200} ], "flavor" : "Daily 2x2"},
        { "id": 2, "value" : 5, "reward" : [ {"type":"coins", "amount":300} ], "flavor" : "Daily 2x3"},
        { "id": 3, "value" : 7, "reward" : [ {"type":"coins", "amount":400} ], "flavor" : "Daily 2x4"},
        { "id": 4, "value" : 9, "reward" : [ {"type":"coins", "amount":500} ], "flavor" : "Daily 2x5"}
      ]
    },
    "2001": {
      "id": 2001,
      "name": "Introduction Quest 1!",
      "desc": "Do intro stuff 1",
      "type": "add",
      "goals": [
        { "id": 0, "value" : 1, "reward" : [ {"type":"items", "amount":2, "id":1}, {"type":"coins", "amount":100} ], "flavor" : "Intro 1x1"},
        { "id": 1, "value" : 3, "reward" : [ {"type":"coins", "amount":200} ], "flavor" : "Intro 1x2"},
        { "id": 2, "value" : 5, "reward" : [ {"type":"coins", "amount":300} ], "flavor" : "Intro 1x3"},
        { "id": 3, "value" : 7, "reward" : [ {"type":"coins", "amount":400} ], "flavor" : "Intro 1x4"},
        { "id": 4, "value" : 9, "reward" : [ {"type":"coins", "amount":500} ], "flavor" : "Intro 1x5"}
      ]
    },
    "2002": {
      "id": 2002,
      "name": "Introduction Quest 2!",
      "desc": "Do intro stuff 2",
      "type": "add",
      "goals": [
        { "id": 0, "value" : 1, "reward" : [ {"type":"coins", "amount":100} ], "flavor" : "Intro 2x1"},
        { "id": 1, "value" : 3, "reward" : [ {"type":"coins", "amount":200} ], "flavor" : "Intro 2x2"},
        { "id": 2, "value" : 5, "reward" : [ {"type":"coins", "amount":300} ], "flavor" : "Intro 2x3"},
        { "id": 3, "value" : 7, "reward" : [ {"type":"coins", "amount":400} ], "flavor" : "Intro 2x4"},
        { "id": 4, "value" : 9, "reward" : [ {"type":"coins", "amount":500} ], "flavor" : "Intro 2x5"}
      ]
    },
    "10001": {
      "id": 10001,
      "name": "Level Up!",
      "desc": "Good ol' level ups, hit the next goal and get your reward!",
      "type": "max",
      "goals": [
        { "id": 0, "value" : 1, "reward" : [ {"type":"coins", "amount":100} ], "flavor" : "Skin & bones"},
        { "id": 1, "value" : 3, "reward" : [ {"type":"coins", "amount":200} ], "flavor" : "Skinny"},
        { "id": 2, "value" : 5, "reward" : [ {"type":"coins", "amount":300} ], "flavor" : "Spindly"},
        { "id": 3, "value" : 7, "reward" : [ {"type":"coins", "amount":400} ], "flavor" : "Lean"},
        { "id": 4, "value" : 9, "reward" : [ {"type":"coins", "amount":500} ], "flavor" : "Wiry"}
      ]
    },
    "10002": {
      "id": 10002,
      "name": "Mission Accomplished!",
      "desc": "Go finish the next quest area!",
      "type": "max",
      "goals": [
        { "id": 0, "value" : 1, "reward" : [ {"type":"coins", "amount":100} ], "flavor" : "Deer Hunter"},
        { "id": 1, "value" : 2, "reward" : [ {"type":"coins", "amount":100} ], "flavor" : "Troll's Bane"},
        { "id": 2, "value" : 3, "reward" : [ {"type":"coins", "amount":100} ], "flavor" : "Squad Leader"},
        { "id": 3, "value" : 4, "reward" : [ {"type":"coins", "amount":100} ], "flavor" : "Vulture's Corpse"},
        { "id": 4, "value" : 5, "reward" : [ {"type":"coins", "amount":100} ], "flavor" : "First Victory"}
      ]
    }
}
