{
  "3": {
    "id": 3,
    "title": "Chapter 3",
    "name": "Audience with the Queen",
    "minLevel": 7,
    "battles": [
      {
        "id": 0,
        "title" : "Mission 1",
        "name" : "Dashca Trail",
        "energy" : 1,
        "battleId": 9,
        "desc": "LV.1 - LV.10",
        "completionsRequired": 10,
        "reqStage": 2,
        "reqQuest": 0,
        "reqCompletions": 10
      },
      {
        "id": 1,
        "title" : "Mission 2",
        "name" : "Dashca Ascent",
        "energy" : 1,
        "battleId": 10,
        "desc": "LV.1 - LV.10",
        "completionsRequired": 1,
        "reqStage": 3,
        "reqQuest": 0,
        "reqCompletions": 10
      }
    ],
    "desc": "Sidney Castle"
  },
  "2": {
    "id": 2,
    "title": "Chapter 2",
    "name": "The Old Road",
    "minLevel": 5,
    "battles": [
      {
        "id": 0,
        "title" : "Mission 1",
        "name" : "Dashca Trail",
        "energy" : 1,
        "battleId": 7,
        "desc": "LV.1 - LV.10",
        "completionsRequired": 10,
        "reqStage": 1,
        "reqQuest": 0,
        "reqCompletions": 10
      },
      {
        "id": 1,
        "title" : "Mission 2",
        "name" : "Dashca Ascent",
        "energy" : 1,
        "battleId": 8,
        "desc": "LV.1 - LV.10",
        "completionsRequired": 1,
        "reqStage": 2,
        "reqQuest": 0,
        "reqCompletions": 10
      }
    ],
    "desc": "Bundanta Plains"
  },
  "1": {
    "id": 1,
    "title": "Chapter 1",
    "name": "Road to the Capital",
    "minLevel": 3,
    "battles": [
      {
        "id": 0,
        "title" : "Mission 1",
        "name" : "Dashca Trail",
        "energy" : 1,
        "battleId": 5,
        "desc": "LV.1 - LV.10",
        "completionsRequired": 10,
        "reqStage": 0,
        "reqQuest": 3,
        "reqCompletions": 1
      },
      {
        "id": 1,
        "title" : "Mission 2",
        "name" : "Dashca Ascent",
        "energy" : 1,
        "battleId": 6,
        "desc": "LV.1 - LV.10",
        "completionsRequired": 1,
        "reqStage": 1,
        "reqQuest": 0,
        "reqCompletions": 10
      }
    ],
    "desc": "Dashca Mountains"
  },
  "0": {
    "id": 0,
    "title": "Prologue",
    "name": "A Stirring in the Wylds",
    "minLevel": 1,
    "battles": [
      {
        "id": 0,
        "title" : "Mission 1",
        "name" : "Unexpected Hunt",
        "energy" : 1,
        "battleId": 0,
        "desc": "LV.1",
        "completionsRequired": 1
      },
      {
        "id": 1,
        "title" : "Mission 2",
        "name" : "Mysterious Mark",
        "energy" : 1,
        "battleId": 1,
        "desc": "LV.1 - LV.10",
        "completionsRequired": 1,
        "reqStage": 0,
        "reqQuest": 0,
        "reqCompletions": 1
      },
      {
        "id": 2,
        "title" : "Mission 3",
        "name" : "Magical Reinforcements",
        "energy" : 1,
        "battleId": 2,
        "desc": "LV.1 - LV.10",
        "completionsRequired": 1,
        "reqStage": 0,
        "reqQuest": 1,
        "reqCompletions": 1
      },
      {
        "id": 3,
        "title" : "Mission 4",
        "name" : "Treetop Ambush",
        "energy" : 1,
        "battleId": 3,
        "desc": "LV.1 - LV.10",
        "completionsRequired": 1,
        "reqStage": 0,
        "reqQuest": 2,
        "reqCompletions": 1
      },
      {
        "id": 4,
        "title" : "REPEATABLE",
        "name" : "Saving Hillcrest",
        "energy" : 10,
        "battleId": 4,
        "desc": "BOSS - Lvl. 8",
        "completionsRequired": 1,
        "reqStage": 0,
        "reqQuest": 3,
        "reqCompletions": 1
      }
    ],
    "desc": "Village of Hillcrest"
  }
}
